{
  "request": {
    "method": "GET",
    "url": "https://yourtenant.thoughtindustries.com/incoming/api/v1/users",
    "headers": {
      "X-API-Key": "YOUR_API_KEY"
    },
    "parameters": {
      "page": 1,
      "per_page": 25
    }
  },
  "response": {
    "status": 200,
    "body": {
      "data": [
        {
          "id": "usr_abc123",
          "email": "jsmith@example.com",
          "first_name": "John",
          "last_name": "Smith",
          "active": true,
          "created_at": "2025-01-15T10:30:00Z",
          "updated_at": "2025-04-22T14:15:00Z",
          "custom_fields": {
            "department": "Engineering",
            "employee_id": "E12345"
          }
        },
        {
          "id": "usr_def456",
          "email": "jdoe@example.com",
          "first_name": "Jane",
          "last_name": "Doe",
          "active": true,
          "created_at": "2025-02-10T08:00:00Z",
          "updated_at": "2025-04-01T09:45:00Z",
          "custom_fields": {
            "department": "Sales",
            "employee_id": "E67890"
          }
        }
      ],
      "meta": {
        "total": 450,
        "page": 1,
        "per_page": 25,
        "total_pages": 18
      }
    }
  }
}
